\relax 
\providecommand\hyper@newdestlabel[2]{}
\providecommand\HyperFirstAtBeginDocument{\AtBeginDocument}
\HyperFirstAtBeginDocument{\ifx\hyper@anchor\@undefined
\global\let\oldcontentsline\contentsline
\gdef\contentsline#1#2#3#4{\oldcontentsline{#1}{#2}{#3}}
\global\let\oldnewlabel\newlabel
\gdef\newlabel#1#2{\newlabelxx{#1}#2}
\gdef\newlabelxx#1#2#3#4#5#6{\oldnewlabel{#1}{{#2}{#3}}}
\AtEndDocument{\ifx\hyper@anchor\@undefined
\let\contentsline\oldcontentsline
\let\newlabel\oldnewlabel
\fi}
\fi}
\global\let\hyper@last\relax 
\gdef\HyperFirstAtBeginDocument#1{#1}
\providecommand\HyField@AuxAddToFields[1]{}
\providecommand\HyField@AuxAddToCoFields[2]{}
\select@language{english}
\@writefile{toc}{\select@language{english}}
\@writefile{lof}{\select@language{english}}
\@writefile{lot}{\select@language{english}}
\@writefile{toc}{\contentsline {section}{\numberline {1}Introduction}{1}{section.0.1}}
\@writefile{toc}{\contentsline {section}{\numberline {2}C++ Training Exercise}{1}{section.0.2}}
\@writefile{toc}{\contentsline {subsection}{\numberline {2.1}Exercise 1}{1}{subsection.0.2.1}}
\@writefile{toc}{\contentsline {subsection}{\numberline {2.2}Exercise 2}{2}{subsection.0.2.2}}
\@writefile{lof}{\contentsline {figure}{\numberline {1}{\ignorespaces Results of running the main with the new class}}{3}{figure.0.1}}
\newlabel{fig:results1}{{1}{3}{Results of running the main with the new class}{figure.0.1}{}}
\@writefile{toc}{\contentsline {subsection}{\numberline {2.3}Exercise 3}{3}{subsection.0.2.3}}
\@writefile{lof}{\contentsline {figure}{\numberline {2}{\ignorespaces The grades and average are shown with user input "abcd abbd"}}{4}{figure.0.2}}
\newlabel{fig:results2}{{2}{4}{The grades and average are shown with user input "abcd abbd"}{figure.0.2}{}}
\@writefile{lof}{\contentsline {figure}{\numberline {3}{\ignorespaces Unsorted grades and average of the student}}{5}{figure.0.3}}
\newlabel{fig:results3}{{3}{5}{Unsorted grades and average of the student}{figure.0.3}{}}
\@writefile{lof}{\contentsline {figure}{\numberline {4}{\ignorespaces Unsorted (above) and sorted (below) grades and average of the student}}{6}{figure.0.4}}
\newlabel{fig:results4}{{4}{6}{Unsorted (above) and sorted (below) grades and average of the student}{figure.0.4}{}}
\@writefile{toc}{\contentsline {section}{\numberline {3}Rhapsody training exercise}{6}{section.0.3}}
\@writefile{toc}{\contentsline {subsection}{\numberline {3.1}exercise 1}{6}{subsection.0.3.1}}
\@writefile{toc}{\contentsline {subsubsection}{\numberline {3.1.1}Results from Lab 1}{7}{subsubsection.0.3.1.1}}
\@writefile{lof}{\contentsline {figure}{\numberline {5}{\ignorespaces The user needed to print "Hello World"}}{7}{figure.0.5}}
\newlabel{fig:lab1}{{5}{7}{The user needed to print "Hello World"}{figure.0.5}{}}
\@writefile{lof}{\contentsline {figure}{\numberline {6}{\ignorespaces Changed "hello world" to "constructed"}}{7}{figure.0.6}}
\newlabel{fig:lab11}{{6}{7}{Changed "hello world" to "constructed"}{figure.0.6}{}}
\@writefile{toc}{\contentsline {subsubsection}{\numberline {3.1.2}Results from Lab 2}{7}{subsubsection.0.3.1.2}}
\@writefile{lof}{\contentsline {figure}{\numberline {7}{\ignorespaces Verified that the same files are there as in the tutorial}}{8}{figure.0.7}}
\newlabel{fig:lab12}{{7}{8}{Verified that the same files are there as in the tutorial}{figure.0.7}{}}
\@writefile{lof}{\contentsline {figure}{\numberline {8}{\ignorespaces Fixed an error, where a void should be a boolean}}{8}{figure.0.8}}
\newlabel{fig:lab21}{{8}{8}{Fixed an error, where a void should be a boolean}{figure.0.8}{}}
\@writefile{toc}{\contentsline {subsection}{\numberline {3.2}exercise 2}{8}{subsection.0.3.2}}
\@writefile{toc}{\contentsline {subsubsection}{\numberline {3.2.1}Results from Lab 4}{8}{subsubsection.0.3.2.1}}
\@writefile{lof}{\contentsline {figure}{\numberline {9}{\ignorespaces the modification has been automatically roundtripped}}{9}{figure.0.9}}
\newlabel{fig:lab22}{{9}{9}{the modification has been automatically roundtripped}{figure.0.9}{}}
\@writefile{toc}{\contentsline {subsubsection}{\numberline {3.2.2}Results from Lab 5}{9}{subsubsection.0.3.2.2}}
\@writefile{toc}{\contentsline {subsubsection}{\numberline {3.2.3}Results from Lab 6}{9}{subsubsection.0.3.2.3}}
\@writefile{lof}{\contentsline {figure}{\numberline {10}{\ignorespaces The counter counts down}}{10}{figure.0.10}}
\newlabel{fig:lab23}{{10}{10}{The counter counts down}{figure.0.10}{}}
\@writefile{toc}{\contentsline {subsubsection}{\numberline {3.2.4}Results from Lab 7}{10}{subsubsection.0.3.2.4}}
\@writefile{lof}{\contentsline {figure}{\numberline {11}{\ignorespaces The browser contains the new statechart}}{11}{figure.0.11}}
\newlabel{fig:lab24}{{11}{11}{The browser contains the new statechart}{figure.0.11}{}}
\@writefile{lof}{\contentsline {figure}{\numberline {12}{\ignorespaces The browser contains an instance of the Display class}}{12}{figure.0.12}}
\newlabel{fig:lab25}{{12}{12}{The browser contains an instance of the Display class}{figure.0.12}{}}
\@writefile{lof}{\contentsline {figure}{\numberline {13}{\ignorespaces Count goes to 9}}{13}{figure.0.13}}
\newlabel{fig:lab26}{{13}{13}{Count goes to 9}{figure.0.13}{}}
\@writefile{lof}{\contentsline {figure}{\numberline {14}{\ignorespaces Result of task 12 from lab 2}}{14}{figure.0.14}}
\newlabel{fig:lab27}{{14}{14}{Result of task 12 from lab 2}{figure.0.14}{}}
\@writefile{lof}{\contentsline {figure}{\numberline {15}{\ignorespaces result of lab 4 task 5; state chart of the dishwasher}}{14}{figure.0.15}}
\newlabel{fig:lab42}{{15}{14}{result of lab 4 task 5; state chart of the dishwasher}{figure.0.15}{}}
\@writefile{lof}{\contentsline {figure}{\numberline {16}{\ignorespaces result of lab 4 task 7; animated state chart of the dishwasher}}{15}{figure.0.16}}
\newlabel{fig:lab43}{{16}{15}{result of lab 4 task 7; animated state chart of the dishwasher}{figure.0.16}{}}
\@writefile{lof}{\contentsline {figure}{\numberline {17}{\ignorespaces result of lab 4 task 7; animated state chart of the dishwasher in the faulty state}}{15}{figure.0.17}}
\newlabel{fig:lab44}{{17}{15}{result of lab 4 task 7; animated state chart of the dishwasher in the faulty state}{figure.0.17}{}}
\@writefile{lof}{\contentsline {figure}{\numberline {18}{\ignorespaces result of lab 4 task 8; animated state chart of the dishwasher that doesn't start}}{15}{figure.0.18}}
\newlabel{fig:lab45}{{18}{15}{result of lab 4 task 8; animated state chart of the dishwasher that doesn't start}{figure.0.18}{}}
\@writefile{lof}{\contentsline {figure}{\numberline {19}{\ignorespaces result of lab 5 task 7; first cycle}}{16}{figure.0.19}}
\newlabel{fig:lab51}{{19}{16}{result of lab 5 task 7; first cycle}{figure.0.19}{}}
\@writefile{lof}{\contentsline {figure}{\numberline {20}{\ignorespaces result of lab 5 task 7; fourth cycle}}{16}{figure.0.20}}
\newlabel{fig:lab52}{{20}{16}{result of lab 5 task 7; fourth cycle}{figure.0.20}{}}
\@writefile{lof}{\contentsline {figure}{\numberline {21}{\ignorespaces result of lab 5 task 7; panel and automated state chart are the same}}{17}{figure.0.21}}
\newlabel{fig:lab53}{{21}{17}{result of lab 5 task 7; panel and automated state chart are the same}{figure.0.21}{}}
\@writefile{lof}{\contentsline {figure}{\numberline {22}{\ignorespaces result of lab 5 task 9; animated sequence diagram starts}}{18}{figure.0.22}}
\newlabel{fig:lab54}{{22}{18}{result of lab 5 task 9; animated sequence diagram starts}{figure.0.22}{}}
\@writefile{lof}{\contentsline {figure}{\numberline {23}{\ignorespaces result of lab 6 task 7; animated buildersequence diagram}}{18}{figure.0.23}}
\newlabel{fig:lab61}{{23}{18}{result of lab 6 task 7; animated buildersequence diagram}{figure.0.23}{}}
\@writefile{lof}{\contentsline {figure}{\numberline {24}{\ignorespaces result of lab 7 task 5; Event generated to start and stop the motor}}{19}{figure.0.24}}
\newlabel{fig:lab71}{{24}{19}{result of lab 7 task 5; Event generated to start and stop the motor}{figure.0.24}{}}
\@writefile{lof}{\contentsline {figure}{\numberline {25}{\ignorespaces result of lab 7 task 5; Event generated to start and stop the AC motor}}{19}{figure.0.25}}
\newlabel{fig:lab72}{{25}{19}{result of lab 7 task 5; Event generated to start and stop the AC motor}{figure.0.25}{}}
\@writefile{lof}{\contentsline {figure}{\numberline {26}{\ignorespaces result of lab 7 task 5; Event generated to start and stop the DC motor}}{19}{figure.0.26}}
\newlabel{fig:lab73}{{26}{19}{result of lab 7 task 5; Event generated to start and stop the DC motor}{figure.0.26}{}}
