\select@language {english}
\contentsline {section}{\numberline {1}Introduction}{1}{section.0.1}
\contentsline {section}{\numberline {2}C++ Training Exercise}{1}{section.0.2}
\contentsline {subsection}{\numberline {2.1}Exercise 1}{1}{subsection.0.2.1}
\contentsline {subsection}{\numberline {2.2}Exercise 2}{2}{subsection.0.2.2}
\contentsline {subsection}{\numberline {2.3}Exercise 3}{3}{subsection.0.2.3}
\contentsline {section}{\numberline {3}Rhapsody training exercise}{6}{section.0.3}
\contentsline {subsection}{\numberline {3.1}exercise 1}{6}{subsection.0.3.1}
\contentsline {subsubsection}{\numberline {3.1.1}Results from Lab 1}{7}{subsubsection.0.3.1.1}
\contentsline {subsubsection}{\numberline {3.1.2}Results from Lab 2}{7}{subsubsection.0.3.1.2}
\contentsline {subsection}{\numberline {3.2}exercise 2}{8}{subsection.0.3.2}
\contentsline {subsubsection}{\numberline {3.2.1}Results from Lab 4}{8}{subsubsection.0.3.2.1}
\contentsline {subsubsection}{\numberline {3.2.2}Results from Lab 5}{9}{subsubsection.0.3.2.2}
\contentsline {subsubsection}{\numberline {3.2.3}Results from Lab 6}{9}{subsubsection.0.3.2.3}
\contentsline {subsubsection}{\numberline {3.2.4}Results from Lab 7}{10}{subsubsection.0.3.2.4}
